…
    ## # A tibble: 3 × 1
    ##   victim_sex
    ##   <chr>     
    ## 1 Male      
    ## 2 Female    
    ## 3 Unknown

``` r
  homicide_df |> distinct(victim_age)
```

    ## # A tibble: 102 × 1
    ##    victim_age
    ##    <chr>     
    ##  1 78        
    ##  2 17        
    ##  3 15        
    ##  4 32        
    ##  5 72        
    ##  6 91        
    ##  7 52        
    ##  8 56        
    ##  9 43        
    ## 10 20        
    ## # ℹ 92 more rows
…
``` r
boot_sample = function(df){
  sample_frac(df, replace = TRUE) #draws saple of size of our df (with replacement making it a bootstrap)
}

boot_straps=
  tibble(strap_number = 1:5000)|>
  mutate(
    strap_sample = map(strap_number, \(i) boot_sample(df = weather_df))
  )

boot_straps
```

    ## # A tibble: 5,000 × 2
    ##    strap_number strap_sample        
    ##           <int> <list>              
    ##  1            1 <tibble [2,171 × 6]>
    ##  2            2 <tibble [2,171 × 6]>
    ##  3            3 <tibble [2,171 × 6]>
    ##  4            4 <tibble [2,171 × 6]>
    ##  5            5 <tibble [2,171 × 6]>
    ##  6            6 <tibble [2,171 × 6]>
    ##  7            7 <tibble [2,171 × 6]>
    ##  8            8 <tibble [2,171 × 6]>
    ##  9            9 <tibble [2,171 × 6]>
    ## 10           10 <tibble [2,171 × 6]>
    ## # ℹ 4,990 more rows
…
